…
``` r
MrTrashWheel_df = 
    read_excel("./data/Trash Wheel Collection Data.xlsx",sheet = "Mr. Trash Wheel",range = "A2:N550") %>% 
    janitor::clean_names() %>% 
    drop_na(dumpster) %>% 
    mutate(
      dumpster = as.character(dumpster),
      sports_balls = as.integer(round(sports_balls)),
      year = as.double(year)
    )
MrTrashWheel_df
```

    ## # A tibble: 547 × 14
    ##    dumpster month  year date                weight_tons volume…¹ plast…² polys…³
    ##    <chr>    <chr> <dbl> <dttm>                    <dbl>    <dbl>   <dbl>   <dbl>
    ##  1 1        May    2014 2014-05-16 00:00:00        4.31       18    1450    1820
    ##  2 2        May    2014 2014-05-16 00:00:00        2.74       13    1120    1030
    ##  3 3        May    2014 2014-05-16 00:00:00        3.45       15    2450    3100
    ##  4 4        May    2014 2014-05-17 00:00:00        3.1        15    2380    2730
    ##  5 5        May    2014 2014-05-17 00:00:00        4.06       18     980     870
    ##  6 6        May    2014 2014-05-20 00:00:00        2.71       13    1430    2140
    ##  7 7        May    2014 2014-05-21 00:00:00        1.91        8     910    1090
    ##  8 8        May    2014 2014-05-28 00:00:00        3.7        16    3580    4310
    ##  9 9        June   2014 2014-06-05 00:00:00        2.52       14    2400    2790
    ## 10 10       June   2014 2014-06-11 00:00:00        3.76       18    1340    1730
    ## # … with 537 more rows, 6 more variables: cigarette_butts <dbl>,
    ## #   glass_bottles <dbl>, grocery_bags <dbl>, chip_bags <dbl>,
    ## #   sports_balls <int>, homes_powered <dbl>, and abbreviated variable names
    ## #   ¹​volume_cubic_yards, ²​plastic_bottles, ³​polystyrene

Import, clean, and organize the data for Professor Trash Wheel

``` r
ProfessorTrashWheel_df = 
    read_excel("./data/Trash Wheel Collection Data.xlsx",sheet = "Professor Trash Wheel",range = "A2:M97") %>% 
    janitor::clean_names() %>% 
    drop_na(dumpster) %>% 
    mutate(
      dumpster = as.character(dumpster)
    )
ProfessorTrashWheel_df
```

    ## # A tibble: 94 × 13
    ##    dumpster month     year date                weight_…¹ volum…² plast…³ polys…⁴
    ##    <chr>    <chr>    <dbl> <dttm>                  <dbl>   <dbl>   <dbl>   <dbl>
    ##  1 1        January   2017 2017-01-02 00:00:00      1.79      15    1950    6080
    ##  2 2        January   2017 2017-01-30 00:00:00      1.58      15    9540   11230
    ##  3 3        February  2017 2017-02-26 00:00:00      2.32      18    8350    9210
    ##  4 4        February  2017 2017-02-26 00:00:00      3.72      15    8590    1030
    ##  5 5        February  2017 2017-02-28 00:00:00      1.45      15    7830    9950
    ##  6 6        March     2017 2017-03-30 00:00:00      1.71      15    8210   10340
    ##  7 7        April     2017 2017-04-01 00:00:00      1.82      15    9830   11020
    ##  8 8        April     2017 2017-04-20 00:00:00      2.37      15    9240    8760
    ##  9 9        May       2017 2017-05-10 00:00:00      2.64      15    9540    8810
    ## 10 10       May       2017 2017-05-26 00:00:00      2.78      15    8230    7800
    ## # … with 84 more rows, 5 more variables: cigarette_butts <dbl>,
    ## #   glass_bottles <dbl>, grocery_bags <dbl>, chip_bags <dbl>,
    ## #   homes_powered <dbl>, and abbreviated variable names ¹​weight_tons,
    ## #   ²​volume_cubic_yards, ³​plastic_bottles, ⁴​polystyrene
…
``` r
MrTrashWheel_df = MrTrashWheel_df %>% 
 mutate(type = "Mr. Trash Wheel")
ProfessorTrashWheel_df = ProfessorTrashWheel_df %>% 
  mutate(type = "Professor Trash Wheel")
TrashWheel_tidy = bind_rows(MrTrashWheel_df,ProfessorTrashWheel_df) %>% 
  janitor::clean_names() %>% 
  mutate(
    year = as.integer(year)
  )
TrashWheel_tidy
```

    ## # A tibble: 641 × 15
    ##    dumpster month  year date                weight_tons volume…¹ plast…² polys…³
    ##    <chr>    <chr> <int> <dttm>                    <dbl>    <dbl>   <dbl>   <dbl>
    ##  1 1        May    2014 2014-05-16 00:00:00        4.31       18    1450    1820
    ##  2 2        May    2014 2014-05-16 00:00:00        2.74       13    1120    1030
    ##  3 3        May    2014 2014-05-16 00:00:00        3.45       15    2450    3100
    ##  4 4        May    2014 2014-05-17 00:00:00        3.1        15    2380    2730
    ##  5 5        May    2014 2014-05-17 00:00:00        4.06       18     980     870
    ##  6 6        May    2014 2014-05-20 00:00:00        2.71       13    1430    2140
    ##  7 7        May    2014 2014-05-21 00:00:00        1.91        8     910    1090
    ##  8 8        May    2014 2014-05-28 00:00:00        3.7        16    3580    4310
    ##  9 9        June   2014 2014-06-05 00:00:00        2.52       14    2400    2790
    ## 10 10       June   2014 2014-06-11 00:00:00        3.76       18    1340    1730
    ## # … with 631 more rows, 7 more variables: cigarette_butts <dbl>,
    ## #   glass_bottles <dbl>, grocery_bags <dbl>, chip_bags <dbl>,
    ## #   sports_balls <int>, homes_powered <dbl>, type <chr>, and abbreviated
    ## #   variable names ¹​volume_cubic_yards, ²​plastic_bottles, ³​polystyrene
…
    ## Rows: 822 Columns: 9
    ## ── Column specification ────────────────────────────────────────────────────────
    ## Delimiter: ","
    ## dbl  (8): prez_gop, gov_gop, sen_gop, rep_gop, prez_dem, gov_dem, sen_dem, r...
    ## date (1): mon
    ## 
    ## ℹ Use `spec()` to retrieve the full column specification for this data.
    ## ℹ Specify the column types or set `show_col_types = FALSE` to quiet this message.

``` r
pols_month_df
```

    ## # A tibble: 822 × 11
    ##    year  month     day   prez_…¹ gov_gop sen_gop rep_gop prez_…² gov_dem sen_dem
    ##    <chr> <chr>     <chr>   <dbl>   <dbl>   <dbl>   <dbl>   <dbl>   <dbl>   <dbl>
    ##  1 1947  January   15          0      23      51     253       1      23      45
    ##  2 1947  February  15          0      23      51     253       1      23      45
    ##  3 1947  March     15          0      23      51     253       1      23      45
    ##  4 1947  April     15          0      23      51     253       1      23      45
    ##  5 1947  May       15          0      23      51     253       1      23      45
    ##  6 1947  June      15          0      23      51     253       1      23      45
    ##  7 1947  July      15          0      23      51     253       1      23      45
    ##  8 1947  Augest    15          0      23      51     253       1      23      45
    ##  9 1947  September 15          0      23      51     253       1      23      45
    ## 10 1947  October   15          0      23      51     253       1      23      45
    ## # … with 812 more rows, 1 more variable: rep_dem <dbl>, and abbreviated
    ## #   variable names ¹​prez_gop, ²​prez_dem

create a president column using values prez_gop and prez_dem

``` r
pols_month_df = pols_month_df %>% 
  mutate(
    president = ifelse(prez_gop == 1, "gop",ifelse(prez_gop == 0,"dem","special case")))
  pols_month_df
```

    ## # A tibble: 822 × 12
    ##    year  month     day   prez_…¹ gov_gop sen_gop rep_gop prez_…² gov_dem sen_dem
    ##    <chr> <chr>     <chr>   <dbl>   <dbl>   <dbl>   <dbl>   <dbl>   <dbl>   <dbl>
    ##  1 1947  January   15          0      23      51     253       1      23      45
    ##  2 1947  February  15          0      23      51     253       1      23      45
    ##  3 1947  March     15          0      23      51     253       1      23      45
    ##  4 1947  April     15          0      23      51     253       1      23      45
    ##  5 1947  May       15          0      23      51     253       1      23      45
    ##  6 1947  June      15          0      23      51     253       1      23      45
    ##  7 1947  July      15          0      23      51     253       1      23      45
    ##  8 1947  Augest    15          0      23      51     253       1      23      45
    ##  9 1947  September 15          0      23      51     253       1      23      45
    ## 10 1947  October   15          0      23      51     253       1      23      45
    ## # … with 812 more rows, 2 more variables: rep_dem <dbl>, president <chr>, and
    ## #   abbreviated variable names ¹​prez_gop, ²​prez_dem

remove prez_gop,prez_dem and day variables

``` r
pols_month_df = pols_month_df %>% 
select(-prez_dem,-prez_gop,-day)
pols_month_df
```

    ## # A tibble: 822 × 9
    ##    year  month     gov_gop sen_gop rep_gop gov_dem sen_dem rep_dem president
    ##    <chr> <chr>       <dbl>   <dbl>   <dbl>   <dbl>   <dbl>   <dbl> <chr>    
    ##  1 1947  January        23      51     253      23      45     198 dem      
    ##  2 1947  February       23      51     253      23      45     198 dem      
    ##  3 1947  March          23      51     253      23      45     198 dem      
    ##  4 1947  April          23      51     253      23      45     198 dem      
    ##  5 1947  May            23      51     253      23      45     198 dem      
    ##  6 1947  June           23      51     253      23      45     198 dem      
    ##  7 1947  July           23      51     253      23      45     198 dem      
    ##  8 1947  Augest         23      51     253      23      45     198 dem      
    ##  9 1947  September      23      51     253      23      45     198 dem      
    ## 10 1947  October        23      51     253      23      45     198 dem      
    ## # … with 812 more rows
…
    ## Rows: 787 Columns: 2
    ## ── Column specification ────────────────────────────────────────────────────────
    ## Delimiter: ","
    ## chr (1): date
    ## dbl (1): close
    ## 
    ## ℹ Use `spec()` to retrieve the full column specification for this data.
    ## ℹ Specify the column types or set `show_col_types = FALSE` to quiet this message.

``` r
snps_df
```

    ## # A tibble: 787 × 4
    ##    month day   year  close
    ##    <chr> <chr> <chr> <dbl>
    ##  1 7     1     15    2080.
    ##  2 6     1     15    2063.
    ##  3 5     1     15    2107.
    ##  4 4     1     15    2086.
    ##  5 3     2     15    2068.
    ##  6 2     2     15    2104.
    ##  7 1     2     15    1995.
    ##  8 12    1     14    2059.
    ##  9 11    3     14    2068.
    ## 10 10    1     14    2018.
    ## # … with 777 more rows
…
``` r
snps_df = snps_df %>% 
mutate(
  year = as.integer(year),
  year = ifelse(year < 22,year + 2000,year + 1900)
) 
  snps_df = mutate(snps_df,
    year = as.character(year)
  ) %>% 
  arrange(year,month) %>% 
  relocate(year,month)
  snps_df
```

    ## # A tibble: 787 × 4
    ##    year  month day   close
    ##    <chr> <chr> <chr> <dbl>
    ##  1 1950  1     3      17.0
    ##  2 1950  10    2      19.5
    ##  3 1950  11    1      19.5
    ##  4 1950  12    1      20.4
    ##  5 1950  2     1      17.2
    ##  6 1950  3     1      17.3
    ##  7 1950  4     3      18.0
    ##  8 1950  5     1      18.8
    ##  9 1950  6     1      17.7
    ## 10 1950  7     3      17.8
    ## # … with 777 more rows
…
    ## Rows: 68 Columns: 13
    ## ── Column specification ────────────────────────────────────────────────────────
    ## Delimiter: ","
    ## dbl (13): Year, Jan, Feb, Mar, Apr, May, Jun, Jul, Aug, Sep, Oct, Nov, Dec
    ## 
    ## ℹ Use `spec()` to retrieve the full column specification for this data.
    ## ℹ Specify the column types or set `show_col_types = FALSE` to quiet this message.

``` r
unemployment_df
```

    ## # A tibble: 816 × 3
    ##    year  month `percentage of unemployment`
    ##    <chr> <chr>                        <dbl>
    ##  1 1948  jan                            3.4
    ##  2 1948  feb                            3.8
    ##  3 1948  mar                            4  
    ##  4 1948  apr                            3.9
    ##  5 1948  may                            3.5
    ##  6 1948  jun                            3.6
    ##  7 1948  jul                            3.6
    ##  8 1948  aug                            3.9
    ##  9 1948  sep                            3.8
    ## 10 1948  oct                            3.7
    ## # … with 806 more rows

merge snps dataset into pols dataset and then merge unemployment dataset
into them

``` r
snps_pols_merge = left_join(pols_month_df,snps_df,by = c("year","month"))
merge_unemployment = left_join(snps_pols_merge,unemployment_df,by = c("year","month"))
snps_pols_merge
```

    ## # A tibble: 822 × 11
    ##    year  month     gov_gop sen_gop rep_gop gov_dem sen_dem rep_dem presi…¹ day  
    ##    <chr> <chr>       <dbl>   <dbl>   <dbl>   <dbl>   <dbl>   <dbl> <chr>   <chr>
    ##  1 1947  January        23      51     253      23      45     198 dem     <NA> 
    ##  2 1947  February       23      51     253      23      45     198 dem     <NA> 
    ##  3 1947  March          23      51     253      23      45     198 dem     <NA> 
    ##  4 1947  April          23      51     253      23      45     198 dem     <NA> 
    ##  5 1947  May            23      51     253      23      45     198 dem     <NA> 
    ##  6 1947  June           23      51     253      23      45     198 dem     <NA> 
    ##  7 1947  July           23      51     253      23      45     198 dem     <NA> 
    ##  8 1947  Augest         23      51     253      23      45     198 dem     <NA> 
    ##  9 1947  September      23      51     253      23      45     198 dem     <NA> 
    ## 10 1947  October        23      51     253      23      45     198 dem     <NA> 
    ## # … with 812 more rows, 1 more variable: close <dbl>, and abbreviated variable
    ## #   name ¹​president

``` r
merge_unemployment
```

    ## # A tibble: 822 × 12
    ##    year  month     gov_gop sen_gop rep_gop gov_dem sen_dem rep_dem presi…¹ day  
    ##    <chr> <chr>       <dbl>   <dbl>   <dbl>   <dbl>   <dbl>   <dbl> <chr>   <chr>
    ##  1 1947  January        23      51     253      23      45     198 dem     <NA> 
    ##  2 1947  February       23      51     253      23      45     198 dem     <NA> 
    ##  3 1947  March          23      51     253      23      45     198 dem     <NA> 
    ##  4 1947  April          23      51     253      23      45     198 dem     <NA> 
    ##  5 1947  May            23      51     253      23      45     198 dem     <NA> 
    ##  6 1947  June           23      51     253      23      45     198 dem     <NA> 
    ##  7 1947  July           23      51     253      23      45     198 dem     <NA> 
    ##  8 1947  Augest         23      51     253      23      45     198 dem     <NA> 
    ##  9 1947  September      23      51     253      23      45     198 dem     <NA> 
    ## 10 1947  October        23      51     253      23      45     198 dem     <NA> 
    ## # … with 812 more rows, 2 more variables: close <dbl>,
    ## #   `percentage of unemployment` <dbl>, and abbreviated variable name
    ## #   ¹​president
…
